…
    ## Warning: There was 1 warning in `mutate()`.
    ## ℹ In argument: `results = purrr::map2(unsolved_homicides, total_homicides,
    ##   run_prop_test)`.
    ## Caused by warning in `prop.test()`:
    ## ! Chi-squared approximation may be incorrect

``` r
# Print the cleaned up results
print(wp_city_results)
```

    ## # A tibble: 51 × 5
    ##    city_state      unsolved_homicides proportion CI_low CI_high
    ##    <chr>                        <int>      <dbl>  <dbl>   <dbl>
    ##  1 Albuquerque, NM                146      0.386  0.337   0.438
    ##  2 Atlanta, GA                    373      0.383  0.353   0.415
    ##  3 Baltimore, MD                 1825      0.646  0.628   0.663
    ##  4 Baton Rouge, LA                196      0.462  0.414   0.511
    ##  5 Birmingham, AL                 347      0.434  0.399   0.469
    ##  6 Boston, MA                     310      0.505  0.465   0.545
    ##  7 Buffalo, NY                    319      0.612  0.569   0.654
    ##  8 Charlotte, NC                  206      0.300  0.266   0.336
    ##  9 Chicago, IL                   4073      0.736  0.724   0.747
    ## 10 Cincinnati, OH                 309      0.445  0.408   0.483
    ## # ℹ 41 more rows
…
